{
	"info": {
		"_postman_id": "e3d499b2-71cb-43e3-b199-64e6c84a3c9d",
		"name": "Wilson",
		"schema": "https://schema.getpostman.com/json/collection/v2.1.0/collection.json"
	},
	"item": [
		{
			"name": "Users",
			"item": [
				{
					"name": "Customers count",
					"request": {
						"method": "GET",
						"header": [],
						"url": {
							"raw": "localhost:5000/users/customersCount",
							"host": [
								"localhost"
							],
							"port": "5000",
							"path": [
								"users",
								"customersCount"
							]
						}
					},
					"response": []
				},
				{
					"name": "Search by multiple",
					"request": {
						"auth": {
							"type": "bearer",
							"bearer": [
								{
									"key": "token",
									"value": "eyJhbGciOiJIUzI1NiIsInR5cCI6IkpXVCJ9.eyJpZCI6MzgsImZpcnN0TmFtZSI6ItCS0LXQu9C60LAiLCJsYXN0TmFtZSI6ItCf0LXRgtGA0L7QstCwIiwiYXZhdGFyIjoiaHR0cDovL2xvY2FsaG9zdDo1MDAwL3VzZXJzL2F2YXRhci8zOC5wbmciLCJyb2xlIjoxLCJpYXQiOjE2Mjg0OTE1MjAsImV4cCI6MTYyODU3NzkyMH0.3OO_xa6HZVR0PAfgHqn4dxi4ZtPRQQh8B6CaBpj81RY",
									"type": "string"
								}
							]
						},
						"method": "GET",
						"header": [],
						"url": {
							"raw": "localhost:5000/users/search?email=mail.com",
							"host": [
								"localhost"
							],
							"port": "5000",
							"path": [
								"users",
								"search"
							],
							"query": [
								{
									"key": "email",
									"value": "mail.com",
									"description": "string"
								},
								{
									"key": "firstname",
									"value": "ivan",
									"description": "string",
									"disabled": true
								},
								{
									"key": "lastname",
									"value": "ivanov",
									"description": "string",
									"disabled": true
								},
								{
									"key": "city",
									"value": "montreal",
									"description": "string",
									"disabled": true
								},
								{
									"key": "cityId",
									"value": "2",
									"description": "number",
									"disabled": true
								},
								{
									"key": "country",
									"value": "monaco",
									"description": "string",
									"disabled": true
								},
								{
									"key": "countryid",
									"value": "1",
									"description": "number",
									"disabled": true
								},
								{
									"key": "address",
									"value": "address",
									"description": "string",
									"disabled": true
								},
								{
									"key": "role",
									"value": "customer",
									"description": "string",
									"disabled": true
								},
								{
									"key": "roleId",
									"value": "1",
									"description": "number",
									"disabled": true
								}
							]
						}
					},
					"response": []
				},
				{
					"name": "Search by keyword",
					"request": {
						"auth": {
							"type": "bearer",
							"bearer": [
								{
									"key": "token",
									"value": "eyJhbGciOiJIUzI1NiIsInR5cCI6IkpXVCJ9.eyJpZCI6MzgsImZpcnN0TmFtZSI6ItCS0LXQu9C60LAiLCJsYXN0TmFtZSI6ItCf0LXRgtGA0L7QstCwIiwiYXZhdGFyIjoiaHR0cDovL2xvY2FsaG9zdDo1MDAwL3VzZXJzL2F2YXRhci8zOC5wbmciLCJyb2xlIjoxLCJpYXQiOjE2Mjg0OTE1MjAsImV4cCI6MTYyODU3NzkyMH0.3OO_xa6HZVR0PAfgHqn4dxi4ZtPRQQh8B6CaBpj81RY",
									"type": "string"
								}
							]
						},
						"method": "GET",
						"header": [],
						"url": {
							"raw": "localhost:5000/users?keyWord=can",
							"host": [
								"localhost"
							],
							"port": "5000",
							"path": [
								"users"
							],
							"query": [
								{
									"key": "keyWord",
									"value": "can",
									"description": "string"
								}
							]
						}
					},
					"response": []
				},
				{
					"name": "Get user by ID",
					"request": {
						"auth": {
							"type": "bearer",
							"bearer": [
								{
									"key": "token",
									"value": "eyJhbGciOiJIUzI1NiIsInR5cCI6IkpXVCJ9.eyJpZCI6MzgsImZpcnN0TmFtZSI6ItCS0LXQu9C60LAiLCJsYXN0TmFtZSI6ItCf0LXRgtGA0L7QstCwIiwiYXZhdGFyIjoiaHR0cDovL2xvY2FsaG9zdDo1MDAwL3VzZXJzL2F2YXRhci8zOC5wbmciLCJyb2xlIjoxLCJpYXQiOjE2Mjg0OTE1MjAsImV4cCI6MTYyODU3NzkyMH0.3OO_xa6HZVR0PAfgHqn4dxi4ZtPRQQh8B6CaBpj81RY",
									"type": "string"
								}
							]
						},
						"method": "GET",
						"header": [],
						"url": {
							"raw": "localhost:5000/users/1",
							"host": [
								"localhost"
							],
							"port": "5000",
							"path": [
								"users",
								"1"
							]
						}
					},
					"response": []
				},
				{
					"name": "Login",
					"request": {
						"method": "POST",
						"header": [],
						"body": {
							"mode": "raw",
							"raw": "{\n    \"email\": \"myName@mail.bg\",\n    \"password\": \"123456\"\n}",
							"options": {
								"raw": {
									"language": "json"
								}
							}
						},
						"url": {
							"raw": "localhost:5000/users/login",
							"host": [
								"localhost"
							],
							"port": "5000",
							"path": [
								"users",
								"login"
							]
						}
					},
					"response": []
				},
				{
					"name": "Register",
					"request": {
						"method": "POST",
						"header": [],
						"body": {
							"mode": "formdata",
							"formdata": [
								{
									"key": "email",
									"value": "myMail@mail.com",
									"type": "text"
								},
								{
									"key": "password",
									"value": "123456",
									"type": "text"
								},
								{
									"key": "firstName",
									"value": "Иван",
									"type": "text"
								},
								{
									"key": "lastName",
									"value": "Иванов",
									"type": "text"
								},
								{
									"key": "address",
									"value": "ул. Минзухар 12",
									"type": "text"
								},
								{
									"key": "city",
									"value": "2",
									"type": "text"
								},
								{
									"key": "avatar",
									"type": "file",
									"src": "/home/simo/Pictures/d7u2z53-d1dedf4d-0ca0-4a0b-9722-1c60d59a5a8c.png",
									"disabled": true
								}
							]
						},
						"url": {
							"raw": "localhost:5000/users/register",
							"host": [
								"localhost"
							],
							"port": "5000",
							"path": [
								"users",
								"register"
							]
						}
					},
					"response": []
				},
				{
					"name": "Update password",
					"request": {
						"auth": {
							"type": "bearer",
							"bearer": [
								{
									"key": "token",
									"value": "eyJhbGciOiJIUzI1NiIsInR5cCI6IkpXVCJ9.eyJpZCI6MzcsImZpcnN0TmFtZSI6ItCQ0L3RgtC-0L0iLCJsYXN0TmFtZSI6ItCS0LXQu9C10LIiLCJhdmF0YXIiOiJodHRwOi8vbG9jYWxob3N0OjUwMDAvdXNlcnMvYXZhdGFyLzM3LnBuZyIsInJvbGUiOjIsImlhdCI6MTYyODQxOTEwMywiZXhwIjoxNjI4NTA1NTAzfQ.3rF0UwxbELo6SVQKBhJDbeuLxLfZJYFMhHZqDsfELkA",
									"type": "string"
								}
							]
						},
						"method": "PUT",
						"header": [],
						"body": {
							"mode": "raw",
							"raw": "{\n    \"oldPassword\": \"123456\",\n    \"newPassword\": \"654321\",\n    \"newPasswordConfirm\": \"654321\"\n}",
							"options": {
								"raw": {
									"language": "json"
								}
							}
						},
						"url": {
							"raw": "localhost:5000/users/37/password",
							"host": [
								"localhost"
							],
							"port": "5000",
							"path": [
								"users",
								"37",
								"password"
							]
						}
					},
					"response": []
				},
				{
					"name": "Update user info",
					"request": {
						"auth": {
							"type": "bearer",
							"bearer": [
								{
									"key": "token",
									"value": "eyJhbGciOiJIUzI1NiIsInR5cCI6IkpXVCJ9.eyJpZCI6MzgsImZpcnN0TmFtZSI6ItCQ0L3RgtC-0L0iLCJsYXN0TmFtZSI6ItCS0LXQu9C10LIiLCJhdmF0YXIiOm51bGwsInJvbGUiOjEsImlhdCI6MTYyODQ0MzQyNywiZXhwIjoxNjI4NTI5ODI3fQ.mVbXP2GOMFUoSP9omJPBOD13nnN1Ghiw5bMCZ4eEOcQ",
									"type": "string"
								}
							]
						},
						"method": "PUT",
						"header": [],
						"body": {
							"mode": "formdata",
							"formdata": [
								{
									"key": "firstName",
									"value": "Ваня",
									"type": "text"
								},
								{
									"key": "lastName",
									"value": "Иванова",
									"type": "text"
								},
								{
									"key": "address",
									"value": "ул. Кокиче 41",
									"type": "text"
								},
								{
									"key": "city",
									"value": "2",
									"type": "text"
								},
								{
									"key": "avatar",
									"type": "file",
									"src": "/home/simo/Pictures/avatar.png",
									"disabled": true
								}
							]
						},
						"url": {
							"raw": "localhost:5000/users/38/update",
							"host": [
								"localhost"
							],
							"port": "5000",
							"path": [
								"users",
								"38",
								"update"
							]
						}
					},
					"response": []
				},
				{
					"name": "Delete user",
					"request": {
						"auth": {
							"type": "bearer",
							"bearer": [
								{
									"key": "token",
									"value": "eyJhbGciOiJIUzI1NiIsInR5cCI6IkpXVCJ9.eyJpZCI6MzgsImZpcnN0TmFtZSI6ItCS0LXQu9C60LAiLCJsYXN0TmFtZSI6ItCf0LXRgtGA0L7QstCwIiwiYXZhdGFyIjoiaHR0cDovL2xvY2FsaG9zdDo1MDAwL3VzZXJzL2F2YXRhci8zOC5wbmciLCJyb2xlIjoxLCJpYXQiOjE2Mjg0OTE1MjAsImV4cCI6MTYyODU3NzkyMH0.3OO_xa6HZVR0PAfgHqn4dxi4ZtPRQQh8B6CaBpj81RY",
									"type": "string"
								}
							]
						},
						"method": "DELETE",
						"header": [],
						"url": {
							"raw": "localhost:5000/users/37",
							"host": [
								"localhost"
							],
							"port": "5000",
							"path": [
								"users",
								"37"
							]
						}
					},
					"response": []
				}
			]
		}
	]
}